computer_tb.vcd
$date
  Fri Jun 09 22:24:26 2023
$end
$version
  GHDL v0
$end
$timescale
  1 fs
$end
$var reg 1 ! clock_tb $end
$var reg 1 " reset_tb $end
$var reg 8 # port_out_00_tb[7:0] $end
$var reg 8 $ port_out_01_tb[7:0] $end
$var reg 8 % port_out_02_tb[7:0] $end
$var reg 8 & port_out_03_tb[7:0] $end
$var reg 8 ' port_out_04_tb[7:0] $end
$var reg 8 ( port_out_05_tb[7:0] $end
$var reg 8 ) port_out_06_tb[7:0] $end
$var reg 8 * port_out_07_tb[7:0] $end
$var reg 8 + port_out_08_tb[7:0] $end
$var reg 8 , port_out_09_tb[7:0] $end
$var reg 8 - port_out_10_tb[7:0] $end
$var reg 8 . port_out_11_tb[7:0] $end
$var reg 8 / port_out_12_tb[7:0] $end
$var reg 8 0 port_out_13_tb[7:0] $end
$var reg 8 1 port_out_14_tb[7:0] $end
$var reg 8 2 port_out_15_tb[7:0] $end
$var reg 8 3 port_in_00_tb[7:0] $end
$var reg 8 4 port_in_01_tb[7:0] $end
$var reg 8 5 port_in_02_tb[7:0] $end
$var reg 8 6 port_in_03_tb[7:0] $end
$var reg 8 7 port_in_04_tb[7:0] $end
$var reg 8 8 port_in_05_tb[7:0] $end
$var reg 8 9 port_in_06_tb[7:0] $end
$var reg 8 : port_in_07_tb[7:0] $end
$var reg 8 ; port_in_08_tb[7:0] $end
$var reg 8 < port_in_09_tb[7:0] $end
$var reg 8 = port_in_10_tb[7:0] $end
$var reg 8 > port_in_11_tb[7:0] $end
$var reg 8 ? port_in_12_tb[7:0] $end
$var reg 8 @ port_in_13_tb[7:0] $end
$var reg 8 A port_in_14_tb[7:0] $end
$var reg 8 B port_in_15_tb[7:0] $end
$scope module microcontroller_unit $end
$upscope $end
$enddefinitions $end
#0
0!
0"
bUUUUUUUU #
bUUUUUUUU $
bUUUUUUUU %
bUUUUUUUU &
bUUUUUUUU '
bUUUUUUUU (
bUUUUUUUU )
bUUUUUUUU *
bUUUUUUUU +
bUUUUUUUU ,
bUUUUUUUU -
bUUUUUUUU .
bUUUUUUUU /
bUUUUUUUU 0
bUUUUUUUU 1
bUUUUUUUU 2
bUUUUUUUU 3
bUUUUUUUU 4
bUUUUUUUU 5
bUUUUUUUU 6
bUUUUUUUU 7
bUUUUUUUU 8
bUUUUUUUU 9
bUUUUUUUU :
bUUUUUUUU ;
bUUUUUUUU <
bUUUUUUUU =
bUUUUUUUU >
bUUUUUUUU ?
bUUUUUUUU @
bUUUUUUUU A
bUUUUUUUU B
#10000000
1"
#15000000
0"
#25000000
1!
#35000000
0!
b00010001 3
b00100010 4
b00110011 5
b01000100 6
#45000000
1!
#55000000
0!
b00000001 7
b00000010 8
b00000011 9
b00000100 :
#65000000
1!
#75000000
0!
b00000101 ;
b00000010 <
b00000001 =
b00000000 >
#85000000
1!
#95000000
0!
b11111111 ?
b00001111 @
b10101010 A
b01010101 B
#105000000
1!
#115000000
0!
#125000000
1!
#135000000
0!
b00000001 ?
b00000010 @
b00000011 A
b00000100 B
#145000000
1!
#155000000
0!
#165000000
1!
#175000000
0!
b00000000 3
b00000000 4
b00000000 5
b00000000 6
b00000000 7
b00000000 8
b00000000 9
b00000000 :
b00000000 ;
b00000000 <
b00000000 =
b00000000 ?
b00000000 @
b00000000 A
b00000000 B
